dump.vcd
$date
	Wed Nov 26 23:07:54 2025
$end
$version
	Icarus Verilog
$end
$timescale
	1s
$end
$scope module testbench $end
$var wire 32 ! WriteData [31:0] $end
$var wire 1 " MemWrite $end
$var wire 32 # DataAdr [31:0] $end
$var reg 1 $ clk $end
$var reg 1 % reset $end
$var integer 32 & cycle [31:0] $end
$scope module dut $end
$var wire 1 $ clk $end
$var wire 1 % reset $end
$var wire 32 ' WriteData [31:0] $end
$var wire 32 ( ReadData [31:0] $end
$var wire 32 ) PC [31:0] $end
$var wire 1 " MemWrite $end
$var wire 32 * Instr [31:0] $end
$var wire 32 + DataAdr [31:0] $end
$scope module dmem $end
$var wire 1 $ clk $end
$var wire 32 , rd [31:0] $end
$var wire 1 " we $end
$var wire 32 - wd [31:0] $end
$var wire 32 . a [31:0] $end
$upscope $end
$scope module imem $end
$var wire 32 / rd [31:0] $end
$var wire 32 0 a [31:0] $end
$upscope $end
$scope module rvpipelined $end
$var wire 32 1 DataAdr [31:0] $end
$var wire 32 2 InstrF [31:0] $end
$var wire 1 " MemWrite $end
$var wire 32 3 ReadData [31:0] $end
$var wire 32 4 WriteData [31:0] $end
$var wire 1 $ clk $end
$var wire 1 % reset $end
$var wire 1 5 ZeroE $end
$var wire 32 6 WriteDataM [31:0] $end
$var wire 1 7 StallF $end
$var wire 1 8 StallD $end
$var wire 5 9 Rs2E [4:0] $end
$var wire 5 : Rs2D [4:0] $end
$var wire 5 ; Rs1E [4:0] $end
$var wire 5 < Rs1D [4:0] $end
$var wire 2 = ResultSrcW [1:0] $end
$var wire 2 > ResultSrcE [1:0] $end
$var wire 1 ? RegWriteW $end
$var wire 1 @ RegWriteM $end
$var wire 5 A RdW [4:0] $end
$var wire 5 B RdM [4:0] $end
$var wire 5 C RdE [4:0] $end
$var wire 1 D PCSrcE $end
$var wire 32 E PC [31:0] $end
$var wire 1 F MemWriteM $end
$var wire 1 G IsFpE $end
$var wire 1 H IsFpD $end
$var wire 32 I InstrD [31:0] $end
$var wire 2 J ImmSrcD [1:0] $end
$var wire 2 K FpOpD [1:0] $end
$var wire 2 L ForwardBE [1:0] $end
$var wire 2 M ForwardAE [1:0] $end
$var wire 1 N FlushE $end
$var wire 1 O FlushD $end
$var wire 1 P ALUSrcE $end
$var wire 32 Q ALUResultM [31:0] $end
$var wire 3 R ALUControlE [2:0] $end
$scope module Hazard $end
$var wire 5 S Rs2E [4:0] $end
$var wire 5 T Rs2D [4:0] $end
$var wire 5 U Rs1E [4:0] $end
$var wire 5 V Rs1D [4:0] $end
$var wire 2 W ResultSrcE [1:0] $end
$var wire 1 ? RegWriteW $end
$var wire 1 @ RegWriteM $end
$var wire 5 X RdW [4:0] $end
$var wire 5 Y RdM [4:0] $end
$var wire 5 Z RdE [4:0] $end
$var wire 1 D PCSrcE $end
$var wire 1 G IsFpE $end
$var reg 1 O FlushD $end
$var reg 1 N FlushE $end
$var reg 2 [ ForwardAE [1:0] $end
$var reg 2 \ ForwardBE [1:0] $end
$var reg 1 8 StallD $end
$var reg 1 7 StallF $end
$var reg 1 ] fpHazard $end
$var reg 1 ^ lwHazard $end
$var reg 1 _ stall_any $end
$upscope $end
$scope module c $end
$var wire 1 N FlushE $end
$var wire 1 D PCSrcE $end
$var wire 1 $ clk $end
$var wire 1 % reset $end
$var wire 1 ` opb5 $end
$var wire 7 a op [6:0] $end
$var wire 1 b funct7b5 $end
$var wire 7 c funct7 [6:0] $end
$var wire 3 d funct3 [2:0] $end
$var wire 1 5 ZeroE $end
$var wire 2 e ResultSrcW [1:0] $end
$var wire 2 f ResultSrcM [1:0] $end
$var wire 2 g ResultSrcE [1:0] $end
$var wire 2 h ResultSrcD [1:0] $end
$var wire 1 ? RegWriteW $end
$var wire 1 @ RegWriteM $end
$var wire 1 i RegWriteE $end
$var wire 1 j RegWriteD $end
$var wire 1 F MemWriteM $end
$var wire 1 k MemWriteE $end
$var wire 1 l MemWriteD $end
$var wire 1 m JumpE $end
$var wire 1 n JumpD $end
$var wire 1 H IsFpD $end
$var wire 32 o InstrD [31:0] $end
$var wire 2 p ImmSrcD [1:0] $end
$var wire 2 q FpOpD [1:0] $end
$var wire 1 r BranchE $end
$var wire 1 s BranchD $end
$var wire 1 P ALUSrcE $end
$var wire 1 t ALUSrcD $end
$var wire 2 u ALUOp [1:0] $end
$var wire 3 v ALUControlE [2:0] $end
$var wire 3 w ALUControlD [2:0] $end
$scope module ad $end
$var wire 1 x RtypeSub $end
$var wire 3 y funct3 [2:0] $end
$var wire 1 b funct7b5 $end
$var wire 1 ` opb5 $end
$var wire 2 z ALUOp [1:0] $end
$var wire 3 { ALUControl [2:0] $end
$var reg 3 | ALUControl_reg [2:0] $end
$upscope $end
$scope module md $end
$var wire 7 } op [6:0] $end
$var wire 2 ~ ResultSrc [1:0] $end
$var wire 1 j RegWrite $end
$var wire 1 l MemWrite $end
$var wire 1 n Jump $end
$var wire 2 !" ImmSrc [1:0] $end
$var wire 1 s Branch $end
$var wire 1 t ALUSrc $end
$var wire 2 "" ALUOp [1:0] $end
$var reg 11 #" controls [10:0] $end
$upscope $end
$scope module regCtrlDtoE $end
$var wire 1 $ clk $end
$var wire 1 N clr $end
$var wire 10 $" d [9:0] $end
$var wire 1 %" en $end
$var wire 1 % reset $end
$var parameter 38 &" W $end
$var reg 10 '" q [9:0] $end
$upscope $end
$scope module regCtrlEtoMEM $end
$var wire 1 $ clk $end
$var wire 1 (" clr $end
$var wire 4 )" d [3:0] $end
$var wire 1 *" en $end
$var wire 1 % reset $end
$var parameter 34 +" W $end
$var reg 4 ," q [3:0] $end
$upscope $end
$scope module regCtrlMEMtoWB $end
$var wire 1 $ clk $end
$var wire 1 -" clr $end
$var wire 3 ." d [2:0] $end
$var wire 1 /" en $end
$var wire 1 % reset $end
$var parameter 33 0" W $end
$var reg 3 1" q [2:0] $end
$upscope $end
$upscope $end
$scope module dp $end
$var wire 3 2" ALUControlE [2:0] $end
$var wire 1 P ALUSrcE $end
$var wire 1 O FlushD $end
$var wire 1 N FlushE $end
$var wire 2 3" ForwardAE [1:0] $end
$var wire 2 4" ForwardBE [1:0] $end
$var wire 2 5" FpOpD [1:0] $end
$var wire 2 6" ImmSrcD [1:0] $end
$var wire 32 7" InstrF [31:0] $end
$var wire 1 H IsFpD $end
$var wire 1 D PCSrcE $end
$var wire 32 8" ReadDataM [31:0] $end
$var wire 1 ? RegWriteW $end
$var wire 2 9" ResultSrcW [1:0] $end
$var wire 1 8 StallD $end
$var wire 1 7 StallF $end
$var wire 1 $ clk $end
$var wire 1 % reset $end
$var wire 25 :" instr_ext [24:0] $end
$var wire 1 5 ZeroE $end
$var wire 32 ;" WriteDataM [31:0] $end
$var wire 32 <" WriteDataE [31:0] $end
$var wire 32 =" SrcBE [31:0] $end
$var wire 32 >" SrcAE [31:0] $end
$var wire 5 ?" Rs2E [4:0] $end
$var wire 5 @" Rs2D [4:0] $end
$var wire 5 A" Rs1E [4:0] $end
$var wire 5 B" Rs1D [4:0] $end
$var wire 32 C" ResultW [31:0] $end
$var wire 32 D" ReadDataW [31:0] $end
$var wire 5 E" RdW [4:0] $end
$var wire 5 F" RdM [4:0] $end
$var wire 5 G" RdE [4:0] $end
$var wire 5 H" RdD [4:0] $end
$var wire 32 I" RD2E [31:0] $end
$var wire 32 J" RD2D [31:0] $end
$var wire 32 K" RD1E [31:0] $end
$var wire 32 L" RD1D [31:0] $end
$var wire 32 M" PCTargetE [31:0] $end
$var wire 32 N" PCPlus4W [31:0] $end
$var wire 32 O" PCPlus4M [31:0] $end
$var wire 32 P" PCPlus4F [31:0] $end
$var wire 32 Q" PCPlus4E [31:0] $end
$var wire 32 R" PCPlus4D [31:0] $end
$var wire 32 S" PCNext [31:0] $end
$var wire 32 T" PCF [31:0] $end
$var wire 32 U" PCE [31:0] $end
$var wire 32 V" PCD [31:0] $end
$var wire 1 G IsFpE $end
$var wire 32 W" InstrW [31:0] $end
$var wire 32 X" InstrM [31:0] $end
$var wire 32 Y" InstrE [31:0] $end
$var wire 32 Z" InstrD [31:0] $end
$var wire 32 [" ImmExtE [31:0] $end
$var wire 32 \" ImmExtD [31:0] $end
$var wire 2 ]" FpOpE [1:0] $end
$var wire 1 ^" FPValidE $end
$var wire 32 _" FPResultE [31:0] $end
$var wire 32 `" EXResultE [31:0] $end
$var wire 32 a" ALUResultW [31:0] $end
$var wire 32 b" ALUResultM [31:0] $end
$var wire 32 c" ALUResultE [31:0] $end
$var wire 5 d" A2 [4:0] $end
$var wire 5 e" A1 [4:0] $end
$var parameter 32 f" WIDTH $end
$scope module alu $end
$var wire 3 g" alucontrol [2:0] $end
$var wire 1 h" isAddSub $end
$var wire 1 i" v $end
$var wire 1 5 zero $end
$var wire 32 j" sum [31:0] $end
$var wire 32 k" result [31:0] $end
$var wire 32 l" condinvb [31:0] $end
$var wire 32 m" b [31:0] $end
$var wire 32 n" a [31:0] $end
$var reg 32 o" result_reg [31:0] $end
$upscope $end
$scope module alu_fp_u $end
$var wire 8 p" bias_sel [7:0] $end
$var wire 1 $ clk $end
$var wire 8 q" exp_max_sel [7:0] $end
$var wire 8 r" exp_min_sel [7:0] $end
$var wire 1 s" mode_fp $end
$var wire 2 t" op_code [1:0] $end
$var wire 1 % rst $end
$var wire 1 u" start $end
$var wire 32 v" op_b [31:0] $end
$var wire 32 w" op_a [31:0] $end
$var reg 1 x" a_is_inf $end
$var reg 1 y" a_is_nan $end
$var reg 1 z" a_is_zero $end
$var reg 1 {" b_is_inf $end
$var reg 1 |" b_is_nan $end
$var reg 1 }" b_is_zero $end
$var reg 1 ~" did_round $end
$var reg 48 !# div_numer [47:0] $end
$var reg 8 "# exp_a [7:0] $end
$var reg 8 ## exp_b [7:0] $end
$var reg 8 $# exp_diff [7:0] $end
$var reg 8 %# exp_res [7:0] $end
$var reg 5 &# flags [4:0] $end
$var reg 23 '# frac_div [22:0] $end
$var reg 23 (# frac_mul [22:0] $end
$var reg 24 )# frac_round [23:0] $end
$var reg 1 *# guard_bit $end
$var reg 1 +# lsb_bit $end
$var reg 24 ,# mant_a [23:0] $end
$var reg 24 -# mant_b [23:0] $end
$var reg 25 .# mant_sum [24:0] $end
$var reg 1 /# overflow $end
$var reg 48 0# product [47:0] $end
$var reg 48 1# q [47:0] $end
$var reg 48 2# remainder [47:0] $end
$var reg 32 3# result [31:0] $end
$var reg 1 4# round_inc $end
$var reg 1 5# sign_a $end
$var reg 1 6# sign_b $end
$var reg 1 7# sign_res $end
$var reg 1 8# sticky_bit $end
$var reg 1 9# underflow $end
$var reg 1 ^" valid_out $end
$upscope $end
$scope module ext $end
$var wire 2 :# immsrc [1:0] $end
$var wire 25 ;# instr [31:7] $end
$var wire 7 <# opcode [6:0] $end
$var wire 32 =# immext [31:0] $end
$var reg 32 ># immext_reg [31:0] $end
$upscope $end
$scope module extomem $end
$var wire 1 $ clk $end
$var wire 1 ?# clr $end
$var wire 133 @# d [132:0] $end
$var wire 1 A# en $end
$var wire 1 % reset $end
$var parameter 36 B# W $end
$var reg 133 C# q [132:0] $end
$upscope $end
$scope module idtoex $end
$var wire 1 $ clk $end
$var wire 1 N clr $end
$var wire 210 D# d [209:0] $end
$var wire 1 E# en $end
$var wire 1 % reset $end
$var parameter 42 F# W $end
$var reg 210 G# q [209:0] $end
$upscope $end
$scope module iftoid $end
$var wire 1 $ clk $end
$var wire 1 O clr $end
$var wire 96 H# d [95:0] $end
$var wire 1 I# en $end
$var wire 1 % reset $end
$var parameter 34 J# W $end
$var reg 96 K# q [95:0] $end
$upscope $end
$scope module memtowb $end
$var wire 1 $ clk $end
$var wire 1 L# clr $end
$var wire 133 M# d [132:0] $end
$var wire 1 N# en $end
$var wire 1 % reset $end
$var parameter 36 O# W $end
$var reg 133 P# q [132:0] $end
$upscope $end
$scope module mux1 $end
$var wire 32 Q# d0 [31:0] $end
$var wire 32 R# d2 [31:0] $end
$var wire 2 S# s [1:0] $end
$var wire 32 T# y [31:0] $end
$var wire 32 U# d1 [31:0] $end
$var parameter 32 V# WIDTH $end
$upscope $end
$scope module mux2 $end
$var wire 32 W# d0 [31:0] $end
$var wire 32 X# d2 [31:0] $end
$var wire 2 Y# s [1:0] $end
$var wire 32 Z# y [31:0] $end
$var wire 32 [# d1 [31:0] $end
$var parameter 32 \# WIDTH $end
$upscope $end
$scope module mux3 $end
$var wire 32 ]# d0 [31:0] $end
$var wire 32 ^# d1 [31:0] $end
$var wire 1 P s $end
$var wire 32 _# y [31:0] $end
$var parameter 32 `# WIDTH $end
$upscope $end
$scope module pcadd4 $end
$var wire 32 a# b [31:0] $end
$var wire 32 b# y [31:0] $end
$var wire 32 c# a [31:0] $end
$upscope $end
$scope module pcaddbranch $end
$var wire 32 d# a [31:0] $end
$var wire 32 e# b [31:0] $end
$var wire 32 f# y [31:0] $end
$upscope $end
$scope module pcmux $end
$var wire 32 g# d0 [31:0] $end
$var wire 32 h# d1 [31:0] $end
$var wire 1 D s $end
$var wire 32 i# y [31:0] $end
$var parameter 32 j# WIDTH $end
$upscope $end
$scope module pcreg $end
$var wire 1 $ clk $end
$var wire 1 k# clr $end
$var wire 32 l# d [31:0] $end
$var wire 1 m# en $end
$var wire 1 % reset $end
$var parameter 32 n# W $end
$var reg 32 o# q [31:0] $end
$upscope $end
$scope module resultmux $end
$var wire 32 p# d0 [31:0] $end
$var wire 32 q# d1 [31:0] $end
$var wire 32 r# d2 [31:0] $end
$var wire 2 s# s [1:0] $end
$var wire 32 t# y [31:0] $end
$var parameter 32 u# WIDTH $end
$upscope $end
$scope module rf $end
$var wire 5 v# a1 [4:0] $end
$var wire 5 w# a2 [4:0] $end
$var wire 5 x# a3 [4:0] $end
$var wire 1 $ clk $end
$var wire 32 y# wd3 [31:0] $end
$var wire 1 ? we3 $end
$var wire 32 z# rd2 [31:0] $end
$var wire 32 {# rd1 [31:0] $end
$upscope $end
$upscope $end
$upscope $end
$upscope $end
$upscope $end
$enddefinitions $end
$comment Show the parameter values. $end
$dumpall
b100000 u#
b100000 n#
b100000 j#
b100000 `#
b100000 \#
b100000 V#
b10000101 O#
b1100000 J#
b11010010 F#
b10000101 B#
b100000 f"
b11 0"
b100 +"
b1010 &"
$end
#0
$dumpvars
b0 {#
b0 z#
b0 y#
b0 x#
b0 w#
b0 v#
b0 t#
b0 s#
b0 r#
b0 q#
b0 p#
b0 o#
1m#
b100 l#
0k#
b100 i#
b0 h#
b100 g#
b0 f#
b0 e#
b0 d#
b0 c#
b100 b#
b100 a#
b0 _#
b0 ^#
b0 ]#
b0 [#
b0 Z#
b0 Y#
b0 X#
b0 W#
b0 U#
b0 T#
b0 S#
b0 R#
b0 Q#
b0 P#
1N#
b0xxxxxxxxxxxxxxxxxxxxxxxxxxxxxxxx00000000000000000000000000000000 M#
0L#
b0 K#
1I#
b101000000000001000100110000000000000000000000000000000000000000000000000000000000000100 H#
b0 G#
1E#
b0xxxxxxxxxxxxxxxxxxxxxxxxxxxxxxxx0000000000000000000000000000000000000000000000000000000000000000000 D#
b0 C#
1A#
b0 @#
0?#
bx >#
bx =#
b0 <#
b0 ;#
bx :#
x9#
x8#
07#
06#
05#
x4#
b0 3#
bx 2#
bx 1#
bx 0#
x/#
b0 .#
b0 -#
b0 ,#
0+#
0*#
bx )#
bx (#
bx '#
b10 &#
b0 %#
bx $#
b0 ##
b0 "#
bx !#
0~"
1}"
0|"
0{"
1z"
0y"
0x"
b0 w"
b0 v"
1u"
b0 t"
0s"
b1 r"
b11111110 q"
b1111111 p"
b0 o"
b0 n"
b0 m"
b0 l"
b0 k"
b0 j"
0i"
1h"
b0 g"
b0 e"
b0 d"
b0 c"
b0 b"
b0 a"
b0 `"
b0 _"
1^"
b0 ]"
bx \"
b0 ["
b0 Z"
b0 Y"
b0 X"
b0 W"
b0 V"
b0 U"
b0 T"
b100 S"
b0 R"
b0 Q"
b100 P"
b0 O"
b0 N"
b0 M"
b0 L"
b0 K"
b0 J"
b0 I"
b0 H"
b0 G"
b0 F"
b0 E"
b0 D"
b0 C"
b0 B"
b0 A"
b0 @"
b0 ?"
b0 >"
b0 ="
b0 <"
b0 ;"
b0 :"
b0 9"
bx 8"
b10100000000000100010011 7"
bx 6"
b0 5"
b0 4"
b0 3"
b0 2"
b0 1"
1/"
b0 ."
0-"
b0 ,"
1*"
b0 )"
0("
b0 '"
1%"
b0xx0000000 $"
b0xx00xx0xx0 #"
bx ""
bx !"
bx ~
b0 }
b0 |
b0 {
bx z
b0 y
0x
b0 w
b0 v
bx u
0t
0s
0r
b0 q
bx p
b0 o
0n
0m
0l
0k
0j
0i
bx h
b0 g
b0 f
b0 e
b0 d
b0 c
0b
b0 a
0`
0_
0^
0]
b0 \
b0 [
b0 Z
b0 Y
b0 X
b0 W
b0 V
b0 U
b0 T
b0 S
b0 R
b0 Q
0P
0O
0N
b0 M
b0 L
b0 K
bx J
b0 I
0H
0G
0F
b0 E
0D
b0 C
b0 B
b0 A
0@
0?
b0 >
b0 =
b0 <
b0 ;
b0 :
b0 9
08
07
b0 6
15
b0 4
bx 3
b10100000000000100010011 2
b0 1
b0 0
b10100000000000100010011 /
b0 .
b0 -
bx ,
b0 +
b10100000000000100010011 *
b0 )
bx (
b0 '
b0 &
1%
1$
b0 #
0"
b0 !
$end
#5
b1 &
0$
#10
1$
#15
b10 &
0$
#20
1$
#22
0%
#25
b11 &
0$
#30
b101 \"
b101 =#
b101 >#
1j
b0 J
b0 p
b0 !"
b0 6"
b0 :#
1t
b1000000001 $"
b0 h
b0 ~
b10 u
b10 z
b10 ""
bx J"
bx z#
b10010000100 #"
b101 :
b101 T
b101 @"
b101 d"
b101 w#
b10 H"
b1010000000000010 :"
b1010000000000010 ;#
b10011 <#
b10011 a
b10011 }
bx D"
bx q#
bx M"
bx f#
bx h#
bx ["
bx ^#
bx e#
b100 R"
b0xxxxxxxxxxxxxxxxxxxxxxxxxxxxxxxx00000000000000000000000000000000000000010100010000000000000000000000000000001010000000000000000000000000000010000000000010100000000000100010011000 D#
b10100000000000100010011 I
b10100000000000100010011 o
b10100000000000100010011 Z"
b1000 S"
b1000 i#
b1000 l#
b110000000000000110010011 *
b110000000000000110010011 /
b110000000000000110010011 2
b110000000000000110010011 7"
b0xx0 )"
bx >
bx W
bx g
b0xxxxxxxxxxxxxxxxxxxxxxxxxxxxxxxx00000000000000000000000000000000 P#
b0xxxxxxxxxxxxxxxxxxxxxxxxxxxxxxxx0000000000000000000000000000000000000000000000000000000000000000000 G#
b101000000000001000100110000000000000000000000000000000000000000000000000000000000000100 K#
b1000 P"
b1000 b#
b1000 g#
b1100000000000001100100110000000000000000000000000000010000000000000000000000000000001000 H#
b100 )
b100 0
b100 E
b100 T"
b100 c#
b100 o#
b0xx0000000 '"
1$
#35
b100 &
0$
#40
b101 `"
05
b101 c"
b101 k"
b101 o"
b101 j"
b101 l"
b1111111100000000000000000000000 _"
b1111111100000000000000000000000 3#
1+#
b11111111 %#
b1010 .#
0}"
b101 -#
1^"
b100 &#
b1100 \"
b1100 =#
b1100 >#
bx <"
bx Z#
bx ]#
b101 ="
b101 m"
b101 v"
b101 _#
b1100 :
b1100 T
b1100 @"
b1100 d"
b1100 w#
b11 H"
b11000000000000011 :"
b11000000000000011 ;#
1P
b0 >
b0 W
b0 g
b1000 )"
1i
b0xx ."
bx f
b1100 S"
b1100 i#
b1100 l#
b11111111011100011000001110010011 *
b11111111011100011000001110010011 /
b11111111011100011000001110010011 2
b11111111011100011000001110010011 7"
b1000 R"
b100 V"
b0xxxxxxxxxxxxxxxxxxxxxxxxxxxxxxxx00000000000000000000000000000100000000110000011000000000000000000000000000011000000000000000000000000000000100000000000110000000000000110010011000 D#
b110000000000000110010011 I
b110000000000000110010011 o
b110000000000000110010011 Z"
b10100000000000100010011 Y"
b100 Q"
b101 M"
b101 f#
b101 h#
b101 ["
b101 ^#
b101 e#
b101xxxxxxxxxxxxxxxxxxxxxxxxxxxxxxxx000100000000000000000000000000000010000000000010100000000000100010011 @#
b10 C
b10 Z
b10 G"
b101 9
b101 S
b101 ?"
bx I"
bx W#
b1000000001 '"
b0xx0 ,"
b1100 P"
b1100 b#
b1100 g#
b111111110111000110000011100100110000000000000000000000000000100000000000000000000000000000001100 H#
b1000 )
b1000 0
b1000 E
b1000 T"
b1000 c#
b1000 o#
b1100000000000001100100110000000000000000000000000000010000000000000000000000000000001000 K#
b0xxxxxxxxxxxxxxxxxxxxxxxxxxxxxxxx00000000000000000000000000000000000000010100010000000000000000000000000000001010000000000000000000000000000010000000000010100000000000100010011000 G#
1$
#45
b101 &
0$
#50
b1100 `"
b1100 c"
b1100 k"
b1100 o"
b1100 j"
b1100 l"
0+#
b11000 .#
b11111111 %#
b1100 -#
1^"
b100 &#
b1111111100000000000000000000000 _"
b1111111100000000000000000000000 3#
bx L"
bx {#
b11111111111111111111111111110111 \"
b11111111111111111111111111110111 =#
b11111111111111111111111111110111 >#
bx C"
bx U#
bx [#
bx t#
bx y#
b1100 ="
b1100 m"
b1100 v"
b1100 _#
b11 <
b11 V
b11 B"
b10111 :
b10111 T
b10111 @"
b11 e"
b11 v#
b10111 d"
b10111 w#
b111 H"
b1111111101110001100000111 :"
b1111111101110001100000111 ;#
b1111111 c
1b
b10100000000000100010011 X"
b100 O"
b10 B
b10 Y
b10 F"
bx !
bx '
bx -
bx 4
bx 6
bx ;"
b1010001000000000000000000000000000000100xxxxxxxxxxxxxxxxxxxxxxxxxxxxxxxx00000000010100000000000100010011 M#
b101 #
b101 +
b101 .
b101 1
b101 Q
b101 b"
b101 R#
b101 X#
b110000000000000110010011 Y"
b1000 Q"
b1100 ["
b1100 ^#
b1100 e#
b1100xxxxxxxxxxxxxxxxxxxxxxxxxxxxxxxx000110000000000000000000000000000100000000000110000000000000110010011 @#
b11 C
b11 Z
b11 G"
b1100 9
b1100 S
b1100 ?"
b10000 M"
b10000 f#
b10000 h#
b100 U"
b100 d#
b1100 R"
b1000 V"
bx00000000000000000000000000001000000111011100111111111111111111111111111111101110000000000000000000000000000110011111111011100011000001110010011000 D#
b11111111011100011000001110010011 I
b11111111011100011000001110010011 o
b11111111011100011000001110010011 Z"
b10000 S"
b10000 i#
b10000 l#
b1000111110001000110011 *
b1000111110001000110011 /
b1000111110001000110011 2
b1000111110001000110011 7"
bx =
bx e
bx 9"
bx s#
b0 f
b100 ."
1@
b101xxxxxxxxxxxxxxxxxxxxxxxxxxxxxxxx000100000000000000000000000000000010000000000010100000000000100010011 C#
b0xxxxxxxxxxxxxxxxxxxxxxxxxxxxxxxx00000000000000000000000000000100000000110000011000000000000000000000000000011000000000000000000000000000000100000000000110000000000000110010011000 G#
b111111110111000110000011100100110000000000000000000000000000100000000000000000000000000000001100 K#
b10000 P"
b10000 b#
b10000 g#
b10001111100010001100110000000000000000000000000000110000000000000000000000000000010000 H#
b1100 )
b1100 0
b1100 E
b1100 T"
b1100 c#
b1100 o#
b0xx 1"
b1000 ,"
1$
#55
b110 &
0$
#60
bx J
bx p
bx !"
bx 6"
bx :#
0t
b11 `"
b101 C"
b101 U#
b101 [#
b101 t#
b101 y#
bx \"
bx =#
bx >#
b1000000110 $"
b11 w
b11 {
b11 |
1`
b1xx00000100 #"
b11111111111111111111111111110111 l"
b11 c"
b11 k"
b11 o"
0z"
1|"
b111111111111111111110111 -#
b1100 ,#
b11111111 ##
16#
1^"
b10000 &#
b1111111110000000000000000000000 _"
b1111111110000000000000000000000 3#
b11 j"
b1100 >"
b1100 n"
b1100 w"
b1100 T#
b111 <
b111 V
b111 B"
b10 :
b10 T
b10 @"
b111 e"
b111 v#
b10 d"
b10 w#
b100 H"
b100011111000100 :"
b100011111000100 ;#
b110011 <#
b0 c
0b
b110 d
b110 y
b110011 a
b110011 }
b11111111111111111111111111110111 ="
b11111111111111111111111111110111 m"
b11111111111111111111111111110111 v"
b11111111111111111111111111110111 _#
b10 M
b10 [
b10 3"
b10 S#
b0 =
b0 e
b0 9"
b0 s#
1?
b10100 S"
b10100 i#
b10100 l#
b10000011111001010110011 *
b10000011111001010110011 /
b10000011111001010110011 2
b10000011111001010110011 7"
b10000 R"
b1100 V"
bx00000000000000000000000000001100001110001000100xxxxxxxxxxxxxxxxxxxxxxxxxxxxxxxx0000000000000000000000000001000000000000001000111110001000110011000 D#
b1000111110001000110011 I
b1000111110001000110011 o
b1000111110001000110011 Z"
b11111111011100011000001110010011 Y"
b1100 Q"
b11111111111111111111111111110111 ["
b11111111111111111111111111110111 ^#
b11111111111111111111111111110111 e#
b11xxxxxxxxxxxxxxxxxxxxxxxxxxxxxxxx001110000000000000000000000000000110011111111011100011000001110010011 @#
b111 C
b111 Z
b111 G"
b10111 9
b10111 S
b10111 ?"
b11 ;
b11 U
b11 A"
b11111111111111111111111111111111 M"
b11111111111111111111111111111111 f#
b11111111111111111111111111111111 h#
b1000 U"
b1000 d#
bx K"
bx Q#
b110000000000000110010011 X"
b1000 O"
b11 B
b11 Y
b11 F"
b11000001100000000000000000000000000001000xxxxxxxxxxxxxxxxxxxxxxxxxxxxxxxx00000000110000000000000110010011 M#
b1100 #
b1100 +
b1100 .
b1100 1
b1100 Q
b1100 b"
b1100 R#
b1100 X#
b10100000000000100010011 W"
b100 N"
b100 r#
b10 A
b10 X
b10 E"
b10 x#
b101 a"
b101 p#
b100 1"
b10100 P"
b10100 b#
b10100 g#
b100000111110010101100110000000000000000000000000001000000000000000000000000000000010100 H#
b10000 )
b10000 0
b10000 E
b10000 T"
b10000 c#
b10000 o#
b10001111100010001100110000000000000000000000000000110000000000000000000000000000010000 K#
bx00000000000000000000000000001000000111011100111111111111111111111111111111101110000000000000000000000000000110011111111011100011000001110010011000 G#
b1100xxxxxxxxxxxxxxxxxxxxxxxxxxxxxxxx000110000000000000000000000000000100000000000110000000000000110010011 C#
b1010001000000000000000000000000000000100xxxxxxxxxxxxxxxxxxxxxxxxxxxxxxxx00000000010100000000000100010011 P#
1$
#65
bx0000000000000000000000000000010100000000000000000000000000001100001110001000100xxxxxxxxxxxxxxxxxxxxxxxxxxxxxxxx0000000000000000000000000001000000000000001000111110001000110011000 D#
b101 J"
b101 z#
b111 &
0$
#70
0h"
b1100 C"
b1100 U#
b1100 [#
b1100 t#
b1100 y#
b101 <"
b101 Z#
b101 ]#
bx J"
bx z#
b1000000100 $"
b10 w
b10 {
b10 |
0~"
0+#
0*#
07#
b10000 .#
b11111111 %#
0}"
0{"
0|"
b101 -#
b11 ,#
b0 ##
06#
1^"
b100 &#
b1111111100000000000000000000000 _"
b1111111100000000000000000000000 3#
b11111111111111111111111111111010 l"
b111 `"
b11 >"
b11 n"
b11 w"
b11 T#
b11 <
b11 V
b11 B"
b100 :
b100 T
b100 @"
b11 e"
b11 v#
b100 d"
b100 w#
b101 H"
b1000001111100101 :"
b1000001111100101 ;#
b111 d
b111 y
b101 ="
b101 m"
b101 v"
b101 _#
b11111111111111111111111111111110 j"
b111 c"
b111 k"
b111 o"
b110000000000000110010011 W"
b1000 N"
b1000 r#
b11 A
b11 X
b11 E"
b11 x#
b1100 a"
b1100 p#
b11111111011100011000001110010011 X"
b1100 O"
b111 B
b111 Y
b111 F"
b110011100000000000000000000000000001100xxxxxxxxxxxxxxxxxxxxxxxxxxxxxxxx11111111011100011000001110010011 M#
b11 #
b11 +
b11 .
b11 1
b11 Q
b11 b"
b11 R#
b11 X#
b1000111110001000110011 Y"
b10000 Q"
bx ["
bx ^#
bx e#
b11100000000000000000000000000000101001000000000000000000000000000001000000000000001000111110001000110011 @#
b100 C
b100 Z
b100 G"
b10 9
b10 S
b10 ?"
b111 ;
b111 U
b111 A"
bx M"
bx f#
bx h#
b1100 U"
b1100 d#
b101 I"
b101 W#
b10100 R"
b10000 V"
bx00000000000000000000000000010000000110010000101xxxxxxxxxxxxxxxxxxxxxxxxxxxxxxxx0000000000000000000000000001010000000000010000011111001010110011000 D#
b10000011111001010110011 I
b10000011111001010110011 o
b10000011111001010110011 Z"
b11000 S"
b11000 i#
b11000 l#
b10000101000001010110011 *
b10000101000001010110011 /
b10000101000001010110011 2
b10000101000001010110011 7"
0P
b11 R
b11 v
b11 2"
b11 g"
b11000001100000000000000000000000000001000xxxxxxxxxxxxxxxxxxxxxxxxxxxxxxxx00000000110000000000000110010011 P#
b11xxxxxxxxxxxxxxxxxxxxxxxxxxxxxxxx001110000000000000000000000000000110011111111011100011000001110010011 C#
bx0000000000000000000000000000010100000000000000000000000000001100001110001000100xxxxxxxxxxxxxxxxxxxxxxxxxxxxxxxx0000000000000000000000000001000000000000001000111110001000110011000 G#
b100000111110010101100110000000000000000000000000001000000000000000000000000000000010100 K#
b11000 P"
b11000 b#
b11000 g#
b100001010000010101100110000000000000000000000000001010000000000000000000000000000011000 H#
b10100 )
b10100 0
b10100 E
b10100 T"
b10100 c#
b10100 o#
b1000000110 '"
1$
#75
b1100xxxxxxxxxxxxxxxxxxxxxxxxxxxxxxxx00000000000000000000000000010000000110010000101xxxxxxxxxxxxxxxxxxxxxxxxxxxxxxxx0000000000000000000000000001010000000000010000011111001010110011000 D#
b1100 L"
b1100 {#
b1000 &
0$
